<?xml version="1.0" encoding="UTF-8" standalone="no"?>
<svg
   xmlns:dc="http://purl.org/dc/elements/1.1/"
   xmlns:cc="http://creativecommons.org/ns#"
   xmlns:rdf="http://www.w3.org/1999/02/22-rdf-syntax-ns#"
   xmlns:svg="http://www.w3.org/2000/svg"
   xmlns="http://www.w3.org/2000/svg"
   xmlns:sodipodi="http://sodipodi.sourceforge.net/DTD/sodipodi-0.dtd"
   xmlns:inkscape="http://www.inkscape.org/namespaces/inkscape"
   xml:space="preserve"
   width="110.32912"
   height="100"
   style="fill-rule:evenodd"
   viewBox="0 0 66.586932 60.781222"
   id="svg2"
   version="1.1"
   inkscape:version="0.48.4 r9939"
   sodipodi:docname="support.svg"><metadata
   id="metadata22"><rdf:RDF><cc:Work
       rdf:about=""><dc:format>image/svg+xml</dc:format><dc:type
         rdf:resource="http://purl.org/dc/dcmitype/StillImage" /></cc:Work></rdf:RDF></metadata><sodipodi:namedview
   pagecolor="#ffffff"
   bordercolor="#666666"
   borderopacity="1"
   objecttolerance="10"
   gridtolerance="10"
   guidetolerance="10"
   inkscape:pageopacity="0"
   inkscape:pageshadow="2"
   inkscape:window-width="1024"
   inkscape:window-height="706"
   id="namedview20"
   showgrid="false"
   fit-margin-top="0"
   fit-margin-left="0"
   fit-margin-right="0"
   fit-margin-bottom="0"
   inkscape:zoom="2.6222369"
   inkscape:cx="49.650069"
   inkscape:cy="44.999494"
   inkscape:window-x="-8"
   inkscape:window-y="-8"
   inkscape:window-maximized="1"
   inkscape:current-layer="svg2" />
 <defs
   id="defs4">
  <style
   type="text/css"
   id="style6">
   
    .fil0 {fill:#373435}
   
  </style>
 </defs>
 <g
   id="Layer_x0020_1"
   style="fill:#000000"
   transform="matrix(1.1111173,0,0,1.1111173,-0.21251429,-1.6997095e-4)">
  <metadata
   id="CorelCorpID_0Corel-Layer" />
  <path
   class="fil0"
   d="M 52.9227,24.651 C 52.012108,13.3475 42.1705,4.4503 30.3853,4.4503 c -11.7852,0 -23.706,7.76855 -22.4845,25.136 2.60427,-8.81144 15.6356,1.88369 32.4307,-16.6981 -2.6565,7.45125 7.32625,11.0259 12.5911,11.7629 z"
   id="path10"
   style="fill:#000000"
   inkscape:connector-curvature="0" />
  <path
   class="fil0"
   d="m 36.5188,41.7556 c 1.15923,2.20052 -1.30339,5.7277 -6.03039,5.7277 -4.41633,0 -7.51284,-3.55204 -6.3121,-5.60954 1.46739,0.875236 3.64511,1.42976 6.07624,1.42976 2.53857,0 4.80068,-0.604704 6.26625,-1.54769 l 0,-2.28e-4 z"
   id="path12"
   style="fill:#000000"
   inkscape:connector-curvature="0" />
  <ellipse
   class="fil0"
   cx="21.4023"
   cy="30.589701"
   rx="4.4416499"
   ry="4.5705299"
   id="ellipse14"
   style="fill:#000000"
   sodipodi:cx="21.4023"
   sodipodi:cy="30.589701"
   sodipodi:rx="4.4416499"
   sodipodi:ry="4.5705299"
   d="m 25.84395,30.589701 c 0,2.524234 -1.988595,4.57053 -4.44165,4.57053 -2.453056,0 -4.44165,-2.046296 -4.44165,-4.57053 0,-2.524234 1.988594,-4.57053 4.44165,-4.57053 2.453055,0 4.44165,2.046296 4.44165,4.57053 z" />
  <ellipse
   class="fil0"
   cx="38.665501"
   cy="30.589701"
   rx="4.4416499"
   ry="4.5705299"
   id="ellipse16"
   style="fill:#000000"
   sodipodi:cx="38.665501"
   sodipodi:cy="30.589701"
   sodipodi:rx="4.4416499"
   sodipodi:ry="4.5705299"
   d="m 43.107151,30.589701 c 0,2.524234 -1.988595,4.57053 -4.44165,4.57053 -2.453056,0 -4.44165,-2.046296 -4.44165,-4.57053 0,-2.524234 1.988594,-4.57053 4.44165,-4.57053 2.453055,0 4.44165,2.046296 4.44165,4.57053 z" />
  <path
   class="fil0"
   d="m 30.1629,27.0949 0.198907,0.08212 -0.199135,-0.09079 2.28e-4,0.0087 z m 30.1898,0.813876 c 0,-4.10086 -1.7872,-7.54227 -4.19917,-8.49073 -3.20897,-10.8696 -13.074,-18.9735 -25.024,-19.4003 -12.5763,-0.449137 -23.4553,7.74779 -26.9147,19.2604 -2.41973,0.940018 -4.21491,4.38713 -4.21491,8.49666 0,4.39192 2.04997,8.02745 4.72153,8.65428 3.4389,9.36186 11.9123,16.356 22.2475,17.5713 0.374319,0.430661 0.925875,0.702561 1.54153,0.702561 1.12775,0 2.04245,-0.91447 2.04245,-2.04267 0,-1.12798 -0.91447,-2.04222 -2.04245,-2.04222 -0.619987,0 -1.17497,0.276006 -1.54974,0.711913 -12.3605,-1.61749 -21.6904,-12.4064 -21.2367,-25.1166 0.481984,-13.4974 11.8142,-24.0481 25.3114,-23.5664 13.4974,0.481756 24.0483,11.8142 23.5664,25.3114 -0.104016,2.91494 -0.728793,5.78541 -1.84194,8.47635 5.59928,0.770992 7.59313,-4.79042 7.59313,-8.52631 l -2.28e-4,2.28e-4 z"
   id="path18"
   style="fill:#000000"
   inkscape:connector-curvature="0" />
 </g>
</svg>